…
# amount of biases
n_distinct(hate_crime$BIAS_DESC)
```

    ## [1] 35

``` r
# display distinct values
hate_crime %>% distinct(BIAS_DESC)
```

    ## # A tibble: 323 × 2
    ## # Groups:   DATA_YEAR [11]
    ##    DATA_YEAR BIAS_DESC                            
    ##        <dbl> <chr>                                
    ##  1      2010 Anti-American Indian or Alaska Native
    ##  2      2010 Anti-Asian                           
    ##  3      2010 Anti-Atheism/Agnosticism             
    ##  4      2010 Anti-Bisexual                        
    ##  5      2010 Anti-Black or African American       
    ##  6      2010 Anti-Catholic                        
    ##  7      2010 Anti-Gay (Male)                      
    ##  8      2010 Anti-Heterosexual                    
    ##  9      2010 Anti-Hispanic or Latino              
    ## 10      2010 Anti-Islamic (Muslim)                
    ## # … with 313 more rows
…
